/Users/taurusthebull/Documents/workspace/mavenwebapp/src/main/java/com/teamsankya/mavenwebapp/dao/EmployeeDAOJDBCImpl.java
/Users/taurusthebull/Documents/workspace/mavenwebapp/src/main/java/com/teamsankya/mavenwebapp/servlets/SearchEmployeeServlet.java
/Users/taurusthebull/Documents/workspace/mavenwebapp/src/main/java/com/teamsankya/mavenwebapp/dto/EmployeeBean.java
/Users/taurusthebull/Documents/workspace/mavenwebapp/src/main/java/com/teamsankya/mavenwebapp/dao/EmployeeDAOHibernateImpl.java
/Users/taurusthebull/Documents/workspace/mavenwebapp/src/main/java/com/teamsankya/mavenwebapp/util/EmployeeDAOFactory.java
/Users/taurusthebull/Documents/workspace/mavenwebapp/src/main/java/com/teamsankya/mavenwebapp/dao/EmployeeDAO.java
/Users/taurusthebull/Documents/workspace/mavenwebapp/src/main/java/com/teamsankya/mavenwebapp/servlets/CreateEmployeeServlet.java
